{
  "_meta": {
    "sources": [
      "loopback/common/models",
      "loopback/server/models",
      "../common/models",
      "./models"
    ]
  },
  "User": {
    "dataSource": "database",
    "public": true
  },
  "AccessToken": {
    "dataSource": "database",
    "public": false
  },
  "ACL": {
    "dataSource": "database",
    "public": false
  },
  "RoleMapping": {
    "dataSource": "database",
    "public": false
  },
  "Role": {
    "dataSource": "database",
    "public": false
  },
  "Car": {
    "dataSource": "database",
    "public": true
  },
  "Profile": {
    "dataSource": "database",
    "public": true
  }
}
